…
To download and install the development version of the package, use `devtools`:
```r
install.packages("devtools")
devtools::install_github("R-Girls/RGirlsData")
```
Once you've installed the package, you can load the library in the standard way:

```r
library(RGirls)
```
**Basic usage:**
```r
reactionData

# A tibble: 103 × 4
   student  test time_before time_after
   <chr>   <dbl>       <dbl>      <dbl>
 1 Amy         1       0.207      0.163
 2 Amy         2       0.221      0.181
 3 Amy         3       0.136      0.175
 4 Amy         4       0.197      0.15 
 5 Amy         5       0.111     NA    
 6 Betty       1       0.3        0.128
 7 Betty       2       0.239      0.273
 8 Betty       3       0.175      0.217
 9 Betty       4       0.26       0.275
10 Carol       1       0.186      0.207
# … with 93 more rows
# ℹ Use `print(n = ...)` to see more rows
```
…
